[
    {
        "id":1,
        "img":"https://via.placeholder.com/300x300/a52a2a",
        "img2":"https://via.placeholder.com/300x300/a52a2a",
        "img3":"https://via.placeholder.com/300x300/a52a2a",
        "nombre":"Godzilla",
        "precio":30,
        "cantidad": 0,
        "stock":6,
        "descripcion": "Polo 100% algodón con diseño de «Godzilla» en serigrafía digital.",
        "escogido":false,
        "fecha": ""

    },

    {
        "id":2,
        "img":"https://via.placeholder.com/300x300/a52a2a",
        "img2":"https://via.placeholder.com/300x300/a52a2a",
        "img3":"https://via.placeholder.com/300x300/a52a2a",
        "nombre":"Peru Ox",
        "precio":50 ,
        "cantidad": 0,
        "stock":8,
        "descripcion": "Polo 100% algodón americano Jersey 30/1",
        "escogido":false,
        "fecha": ""

    },

    {
        "id":3,
        "img":"https://via.placeholder.com/300x300/a52a2a",
        "img2":"https://via.placeholder.com/300x300/a52a2a",
        "img3":"https://via.placeholder.com/300x300/a52a2a",
        "nombre":" Dead Space",
        "precio":35,
        "cantidad": 0,
        "stock":6,
        "descripcion": "Polo 100% algodón de skul",
        "escogido":false,
        "fecha": ""

    },

    {
        "id":4,
        "img":"https://via.placeholder.com/300x300/a52a2a",
        "img2":"https://via.placeholder.com/300x300/a52a2a",
        "img3":"https://via.placeholder.com/300x300/a52a2a",
        "nombre":"Godzilla",
        "precio":49,
        "cantidad": 0,
        "stock":8,
        "descripcion": "Polo 100% algodón con diseño de «Godzilla» en serigrafía digital.",
        "escogido":false,
        "fecha": ""

    },

    {
        "id":5,
        "img":"https://via.placeholder.com/300x300/a52a2a",
        "img2":"https://via.placeholder.com/300x300/a52a2a",
        "img3":"https://via.placeholder.com/300x300/a52a2a",
        "nombre":" Can I Buy you a Beard",
        "precio":59,
        "cantidad": 0,
        "stock":6,
        "descripcion": "Polo 100% algodón con Diseño «Can I buy you a Beard» impreso en Serigrafía Digital",
        "escogido":false,
        "fecha": ""

    },

    {
        "id":6,
        "img":"https://via.placeholder.com/300x300/a52a2a",
        "img2":"https://via.placeholder.com/300x300/a52a2a",
        "img3":"https://via.placeholder.com/300x300/a52a2a",
        "nombre":"Van Gogh",
        "precio":45,
        "cantidad": 0,
        "stock":8,
        "descripcion": "Polo 100% algodón con Diseño  Van Gogh",
        "escogido":false,
        "fecha": ""

    },

    {
        "id":7,
        "img":"https://via.placeholder.com/300x300/a52a2a",
        "img2":"https://via.placeholder.com/300x300/a52a2a",
        "img3":"https://via.placeholder.com/300x300/a52a2a",
        "nombre":" Vive para Crear",
        "precio":49,
        "cantidad": 0,
        "stock":6,
        "descripcion": "Polo 100% algodón con Diseño   Vive para Crear",
        "escogido":false,
        "fecha": ""

    }, 

    {
        "id":8,
        "img":"https://via.placeholder.com/300x300/a52a2a",
        "img2":"https://via.placeholder.com/300x300/a52a2a",
        "img3":"https://via.placeholder.com/300x300/a52a2a",
        "nombre":" Vive para Crear",
        "precio":70,
        "cantidad": 0,
        "stock":8,
        "descripcion": "Polo 100% algodón con Diseño «Wear it» impreso en Serigrafía Digital",
        "escogido":false,
        "fecha": ""

    }




]